…
    ##  [1] "trips"          "stop_times"     "agency"         "calendar"      
    ##  [5] "calendar_dates" "stops"          "routes"         "shapes"        
    ##  [9] "transfers"      "."

## Explore GTFS tables.

The `.` sublist is for storing additional tables (additional to what? anything not strictly required?)

``` r
gtfs$.
```

    ## $dates_services
    ## # A tibble: 3,349 x 2
    ##    date       service_id             
    ##    <date>     <chr>                  
    ##  1 2018-06-24 ASP18GEN-1037-Sunday-00
    ##  2 2018-06-24 ASP18GEN-2048-Sunday-00
    ##  3 2018-06-24 ASP18GEN-3041-Sunday-00
    ##  4 2018-06-24 ASP18GEN-4049-Sunday-00
    ##  5 2018-06-24 ASP18GEN-5048-Sunday-00
    ##  6 2018-06-24 ASP18GEN-6030-Sunday-00
    ##  7 2018-06-24 ASP18GEN-7025-Sunday-00
    ##  8 2018-06-24 BSP18GEN-A051-Sunday-00
    ##  9 2018-06-24 BSP18GEN-C026-Sunday-00
    ## 10 2018-06-24 BSP18GEN-D040-Sunday-00
    ## # ... with 3,339 more rows
…
new_gtfs <- gtfsio::new_gtfs(txt_files)
class(new_gtfs)
```

    ## [1] "gtfs"

This is *just* a `gtfs` object, without the `tidygtfs` class. But it still validates okay:

``` r
validate_gtfs(new_gtfs)
```

    ## # A tibble: 136 x 8
    ##    file  file_spec file_provided_s~ field field_spec field_provided_~
    ##    <chr> <chr>     <lgl>            <chr> <chr>      <lgl>           
    ##  1 agen~ req       TRUE             agen~ opt        TRUE            
    ##  2 agen~ req       TRUE             agen~ req        TRUE            
    ##  3 agen~ req       TRUE             agen~ req        TRUE            
    ##  4 agen~ req       TRUE             agen~ req        TRUE            
    ##  5 agen~ req       TRUE             agen~ opt        TRUE            
    ##  6 agen~ req       TRUE             agen~ opt        TRUE            
    ##  7 agen~ req       TRUE             agen~ opt        FALSE           
    ##  8 agen~ req       TRUE             agen~ opt        FALSE           
    ##  9 stops req       TRUE             stop~ req        TRUE            
    ## 10 stops req       TRUE             stop~ opt        TRUE            
    ## # ... with 126 more rows, and 2 more variables: validation_status <chr>,
    ## #   validation_details <chr>
…
    ## Warning in set_dates_services(g): No valid dates defined in feed

``` r
names(gtfs_from_new_file)
```

    ## [1] "agency"     "stops"      "routes"     "trips"      "stop_times"
    ## [6] "calendar"   "."

``` r
attributes(gtfs_from_new_file)$validation_result
```

    ## # A tibble: 136 x 8
    ##    file  file_spec file_provided_s~ field field_spec field_provided_~
    ##    <chr> <chr>     <lgl>            <chr> <chr>      <lgl>           
    ##  1 agen~ req       TRUE             agen~ opt        TRUE            
    ##  2 agen~ req       TRUE             agen~ req        TRUE            
    ##  3 agen~ req       TRUE             agen~ req        TRUE            
    ##  4 agen~ req       TRUE             agen~ req        TRUE            
    ##  5 agen~ req       TRUE             agen~ opt        TRUE            
    ##  6 agen~ req       TRUE             agen~ opt        TRUE            
    ##  7 agen~ req       TRUE             agen~ opt        FALSE           
    ##  8 agen~ req       TRUE             agen~ opt        FALSE           
    ##  9 stops req       TRUE             stop~ req        TRUE            
    ## 10 stops req       TRUE             stop~ opt        TRUE            
    ## # ... with 126 more rows, and 2 more variables: validation_status <chr>,
    ## #   validation_details <chr>
…
